Introduction to College Football Analytics with cfbscrapR
…
Summarise is the way of creating season-long or game-by-game stats. Let’s start with some season long raw offense numbers, yards per attempt (passing) and yards per rush. We’re going to use the pipe (%>%) to tell R to grab our plays dataset, group it by offense team, and summarize their yards per attempt and yards per rush in a new object called offense.

To create a conditional mean, like “the mean of yards_gained when pass == 1”, all you’ll do is add the condition you want in brackets inside your mean() function.

offense <- plays %>% group_by(offense_play) %>% 
summarise(ypa = mean(yards_gained[pass==1]),
          ypr = mean(yards_gained[rush==1]))

## `summarise()` ungrouping output (override with `.groups` argument)

Now we can ask and answer some fun questions. Who had the best rushing offense, on a per play basis? Who had the best passing offense, on a per-play basis? We will do this using the arrange(desc()) function, which tells R to order the data from greatest to least (descending).

offense %>% arrange(desc(ypr))

## # A tibble: 130 x 3
##    offense_play        ypa   ypr
##    <chr>             <dbl> <dbl>
##  1 Oklahoma           9.49  6.56
##  2 Kentucky           4.89  6.55
##  3 Clemson            8.13  6.50
##  4 Louisiana          7.21  6.39
##  5 Ohio State         8.37  6.37
##  6 Navy               9.06  6.37
##  7 Oklahoma State     6.61  6.25
##  8 Western Michigan   6.61  6.12
##  9 Mississippi State  5.82  6.06
## 10 Ole Miss           6.20  6.01
## # … with 120 more rows

offense %>% arrange(ypa)

## # A tibble: 130 x 3
##    offense_play       ypa   ypr
##    <chr>            <dbl> <dbl>
##  1 Northwestern      3.96  4.79
##  2 Akron             4.12  3.41
##  3 Old Dominion      4.20  4.14
##  4 Duke              4.22  4.11
##  5 UMass             4.27  4.29
##  6 Maryland          4.33  5.83
##  7 Vanderbilt        4.40  4.89
##  8 South Florida     4.52  5.59
##  9 Georgia Tech      4.53  5.10
## 10 Georgia Southern  4.55  5.40
## # … with 120 more rows
…
