Extract CFB (D1) Play by Play Data - For both plays and drives — cfb_pbp_data • cfbscrapR
…
cfb_pbp_data(year=2019,week=9,team='Texas A&M',epa_wpa=T)
#> # A tibble: 167 x 82
#>    game_id drive_id new_id id_play offense_play defense_play home  away  period
#>      <int>    <dbl>  <dbl> <chr>   <chr>        <chr>        <chr> <chr>  <int>
#>  1  4.01e8   4.01e9 1.02e8 401110… Mississippi… Texas A&M    Texa… Miss…      1
#>  2  4.01e8   4.01e9 1.02e8 401110… Mississippi… Texas A&M    Texa… Miss…      1
#>  3  4.01e8   4.01e9 1.02e8 401110… Mississippi… Texas A&M    Texa… Miss…      1
#>  4  4.01e8   4.01e9 1.02e8 401110… Mississippi… Texas A&M    Texa… Miss…      1
#>  5  4.01e8   4.01e9 1.02e8 401110… Mississippi… Texas A&M    Texa… Miss…      1
#>  6  4.01e8   4.01e9 1.02e8 401110… Texas A&M    Mississippi… Texa… Miss…      1
#>  7  4.01e8   4.01e9 1.02e8 401110… Texas A&M    Mississippi… Texa… Miss…      1
#>  8  4.01e8   4.01e9 1.02e8 401110… Texas A&M    Mississippi… Texa… Miss…      1
#>  9  4.01e8   4.01e9 1.02e8 401110… Texas A&M    Mississippi… Texa… Miss…      1
#> 10  4.01e8   4.01e9 1.02e8 401110… Texas A&M    Mississippi… Texa… Miss…      1
#> # … with 157 more rows, and 73 more variables: half <fct>, clock.minutes <dbl>,
#> #   clock.seconds <int>, offense_score <int>, defense_score <int>,
#> #   play_type <chr>, play_text <chr>, drive_scoring <lgl>, TimeSecsRem <dbl>,
#> #   Under_two <lgl>, down <int>, distance <int>, Goal_To_Go <lgl>,
#> #   yards_to_goal <int>, yards_gained <int>, TimeSecsRem_end <dbl>,
#> #   down_end <fct>, distance_end <dbl>, yards_to_goal_end <dbl>,
#> #   offense_conference <chr>, ppa <chr>, drive_start_yardline <int>,
#> #   drive_start_yards_to_goal <int>, drive_end_yards_to_goal <int>,
#> #   drive_yards <int>, drive_result <chr>, drive_pts <dbl>, penalty_flag <lgl>,
…
